…
本帮助文档介绍 dplyr 基本工具集，展示如何将它们应用到数据操作上。dplyr 通过 dbplyr 包支持数据库，一旦安装，可阅读 R 包文档 `vignette("dbplyr")` 学习更多内容。


## 数据集 nycflights13

以 `nycflights13::flights` 为例探索 dplyr 提供的基本数据操作。flights 数据集记录了 2013 年从纽约市出发的所有航班记录，总共 336776 条。数据集最初来自 [美国交通统计局](http://www.transtats.bts.gov/DatabaseInfo.asp?DB_ID=120&Link=0)，各个字段的详细描述见帮助文档 `?nycflights13`


```r
library(nycflights13)
dim(flights)
#> [1] 336776     19
flights
#> # A tibble: 336,776 x 19
#>    year month   day dep_time sched_dep_time dep_delay arr_time
#>   <int> <int> <int>    <int>          <int>     <dbl>    <int>
#> 1  2013     1     1      517            515         2      830
#> 2  2013     1     1      533            529         4      850
#> 3  2013     1     1      542            540         2      923
#> 4  2013     1     1      544            545        -1     1004
#> # ... with 336,772 more rows, and 12 more variables: sched_arr_time <int>,
#> #   arr_delay <dbl>, carrier <chr>, flight <int>, tailnum <chr>,
#> #   origin <chr>, dest <chr>, air_time <dbl>, distance <dbl>, hour <dbl>,
#> #   minute <dbl>, time_hour <dttm>
```
…
###  筛选行 `filter()` 

`filter()` 筛选数据框行的子集，和所有基本操作函数一样，第一个参数是 tibble 或 data.frame 类型的数据框。第二个和后续的参数是选择满足表达式条件的行。

比如，筛选 1 月 1 日的所有航班

```r
filter(flights, month == 1, day == 1)
#> # A tibble: 842 x 19
#>    year month   day dep_time sched_dep_time dep_delay arr_time
#>   <int> <int> <int>    <int>          <int>     <dbl>    <int>
#> 1  2013     1     1      517            515         2      830
#> 2  2013     1     1      533            529         4      850
#> 3  2013     1     1      542            540         2      923
#> 4  2013     1     1      544            545        -1     1004
#> # ... with 838 more rows, and 12 more variables: sched_arr_time <int>,
#> #   arr_delay <dbl>, carrier <chr>, flight <int>, tailnum <chr>,
#> #   origin <chr>, dest <chr>, air_time <dbl>, distance <dbl>, hour <dbl>,
#> #   minute <dbl>, time_hour <dttm>
```

如果用 Base R 代码来写的话，基本等价于

```r
flights[flights$month == 1 & flights$day == 1, ]
```

### 排序 `arrange()` 

`arrange()` 和 `filter()` 的工作方式类似，除了后者用来筛选行，而前者用来排序！ 如果提供多个列名，则每增加一列将用于打破前面各列的值的联系：


```r
arrange(flights, year, month, day)
#> # A tibble: 336,776 x 19
#>    year month   day dep_time sched_dep_time dep_delay arr_time
#>   <int> <int> <int>    <int>          <int>     <dbl>    <int>
#> 1  2013     1     1      517            515         2      830
#> 2  2013     1     1      533            529         4      850
#> 3  2013     1     1      542            540         2      923
#> 4  2013     1     1      544            545        -1     1004
#> # ... with 336,772 more rows, and 12 more variables: sched_arr_time <int>,
#> #   arr_delay <dbl>, carrier <chr>, flight <int>, tailnum <chr>,
#> #   origin <chr>, dest <chr>, air_time <dbl>, distance <dbl>, hour <dbl>,
#> #   minute <dbl>, time_hour <dttm>
```

使用 `desc()` 函数达到降序排列的目的


```r
arrange(flights, desc(arr_delay))
#> # A tibble: 336,776 x 19
#>    year month   day dep_time sched_dep_time dep_delay arr_time
#>   <int> <int> <int>    <int>          <int>     <dbl>    <int>
#> 1  2013     1     9      641            900      1301     1242
#> 2  2013     6    15     1432           1935      1137     1607
#> 3  2013     1    10     1121           1635      1126     1239
#> 4  2013     9    20     1139           1845      1014     1457
#> # ... with 336,772 more rows, and 12 more variables: sched_arr_time <int>,
#> #   arr_delay <dbl>, carrier <chr>, flight <int>, tailnum <chr>,
#> #   origin <chr>, dest <chr>, air_time <dbl>, distance <dbl>, hour <dbl>,
#> #   minute <dbl>, time_hour <dttm>
```

### 筛选列 `select()`

从一个大数据集上筛选部分列 `select()` :


```r
# 按变量名筛选
select(flights, year, month, day)
#> # A tibble: 336,776 x 3
#>    year month   day
#>   <int> <int> <int>
#> 1  2013     1     1
#> 2  2013     1     1
#> 3  2013     1     1
#> 4  2013     1     1
#> # ... with 336,772 more rows
# 选择变量 year 和 day 之间所有的列 (inclusive)
select(flights, year:day)
#> # A tibble: 336,776 x 3
#>    year month   day
#>   <int> <int> <int>
#> 1  2013     1     1
#> 2  2013     1     1
#> 3  2013     1     1
#> 4  2013     1     1
#> # ... with 336,772 more rows
# 和上面正好相反，除了 year 和 day 之间的列都选择
select(flights, -(year:day))
#> # A tibble: 336,776 x 16
#>   dep_time sched_dep_time dep_delay arr_time sched_arr_time arr_delay
#>      <int>          <int>     <dbl>    <int>          <int>     <dbl>
#> 1      517            515         2      830            819        11
#> 2      533            529         4      850            830        20
#> 3      542            540         2      923            850        33
#> 4      544            545        -1     1004           1022       -18
#> # ... with 336,772 more rows, and 10 more variables: carrier <chr>,
#> #   flight <int>, tailnum <chr>, origin <chr>, dest <chr>, air_time <dbl>,
#> #   distance <dbl>, hour <dbl>, minute <dbl>, time_hour <dttm>
```

这有很多有用的函数可以在 `select()` 内使用，比如 `starts_with()`, `ends_with()`, `matches()` 和 `contains()`。这些函数都有点正则匹配的意思了，当然能够更加方便地选择更大范围的数据块，实现更加复杂的筛选条件。

变量重命名

```r
select(flights, tail_num = tailnum)
#> # A tibble: 336,776 x 1
#>   tail_num
#>   <chr>   
#> 1 N14228  
#> 2 N24211  
#> 3 N619AA  
#> 4 N804JB  
#> # ... with 336,772 more rows
```

但是，由于 `select()` 扔掉所有变量而不显式地提醒, 所以我们推荐使用 `rename()`:


```r
rename(flights, tail_num = tailnum)
#> # A tibble: 336,776 x 19
#>    year month   day dep_time sched_dep_time dep_delay arr_time
#>   <int> <int> <int>    <int>          <int>     <dbl>    <int>
#> 1  2013     1     1      517            515         2      830
#> 2  2013     1     1      533            529         4      850
#> 3  2013     1     1      542            540         2      923
#> 4  2013     1     1      544            545        -1     1004
#> # ... with 336,772 more rows, and 12 more variables: sched_arr_time <int>,
#> #   arr_delay <dbl>, carrier <chr>, flight <int>, tail_num <chr>,
#> #   origin <chr>, dest <chr>, air_time <dbl>, distance <dbl>, hour <dbl>,
#> #   minute <dbl>, time_hour <dttm>
```

### 添加新列/变异 `mutate()`

除了从已有的列中选择子集，还可以根据已有的列添加新的列，这常常是很有用的。这个工作由函数 `mutate()`完成:


```r
mutate(flights,
  gain = arr_delay - dep_delay,
  speed = distance / air_time * 60
)
#> # A tibble: 336,776 x 21
#>    year month   day dep_time sched_dep_time dep_delay arr_time
#>   <int> <int> <int>    <int>          <int>     <dbl>    <int>
#> 1  2013     1     1      517            515         2      830
#> 2  2013     1     1      533            529         4      850
#> 3  2013     1     1      542            540         2      923
#> 4  2013     1     1      544            545        -1     1004
#> # ... with 336,772 more rows, and 14 more variables: sched_arr_time <int>,
#> #   arr_delay <dbl>, carrier <chr>, flight <int>, tailnum <chr>,
#> #   origin <chr>, dest <chr>, air_time <dbl>, distance <dbl>, hour <dbl>,
#> #   minute <dbl>, time_hour <dttm>, gain <dbl>, speed <dbl>
```

`dplyr::mutate()` 类似于 Base R 中的 `transform()` 函数, 并且允许使用刚刚创建的新变量（这个功能需要借助 Base R 中的 `within` 函数来实现）:


```r
mutate(flights,
  gain = arr_delay - dep_delay,
  gain_per_hour = gain / (air_time / 60)
)
#> # A tibble: 336,776 x 21
#>    year month   day dep_time sched_dep_time dep_delay arr_time
#>   <int> <int> <int>    <int>          <int>     <dbl>    <int>
#> 1  2013     1     1      517            515         2      830
#> 2  2013     1     1      533            529         4      850
#> 3  2013     1     1      542            540         2      923
#> 4  2013     1     1      544            545        -1     1004
#> # ... with 336,772 more rows, and 14 more variables: sched_arr_time <int>,
#> #   arr_delay <dbl>, carrier <chr>, flight <int>, tailnum <chr>,
#> #   origin <chr>, dest <chr>, air_time <dbl>, distance <dbl>, hour <dbl>,
#> #   minute <dbl>, time_hour <dttm>, gain <dbl>, gain_per_hour <dbl>
```

如果你只想保持住创建的新变量，可以使用函数 `transmute()`:


```r
transmute(flights,
  gain = arr_delay - dep_delay,
  gain_per_hour = gain / (air_time / 60)
)
#> # A tibble: 336,776 x 2
#>    gain gain_per_hour
#>   <dbl>         <dbl>
#> 1     9          2.38
#> 2    16          4.23
#> 3    31         11.6 
#> 4   -17         -5.57
#> # ... with 336,772 more rows
```
…
学了  `group_by()` 函数后，会发现它很有用，因为分组汇总嘛！。

### 随机抽样 `sample_n()` 和 `sample_frac()`

 `sample_n()` 和 `sample_frac()` 用于对行进行随机抽样，函数 `sample_n()` 抽取指定数目的行，而函数 `sample_frac()` 抽取指定的比例。


```r
sample_n(flights, 10)
#> # A tibble: 10 x 19
#>    year month   day dep_time sched_dep_time dep_delay arr_time
#>   <int> <int> <int>    <int>          <int>     <dbl>    <int>
#> 1  2013     9     9     1440           1429        11     1649
#> 2  2013     5    15     1427           1429        -2     1728
#> 3  2013     8    14     1121           1120         1     1228
#> 4  2013     8     4     1448           1429        19     1657
#> # ... with 6 more rows, and 12 more variables: sched_arr_time <int>,
#> #   arr_delay <dbl>, carrier <chr>, flight <int>, tailnum <chr>,
#> #   origin <chr>, dest <chr>, air_time <dbl>, distance <dbl>, hour <dbl>,
#> #   minute <dbl>, time_hour <dttm>
sample_frac(flights, 0.01)
#> # A tibble: 3,368 x 19
#>    year month   day dep_time sched_dep_time dep_delay arr_time
#>   <int> <int> <int>    <int>          <int>     <dbl>    <int>
#> 1  2013    11     7     1855           1900        -5     2238
#> 2  2013     3    10     1930           1935        -5     2213
#> 3  2013     2    22     1622           1615         7     1820
#> 4  2013     8     9      602            605        -3      744
#> # ... with 3,364 more rows, and 12 more variables: sched_arr_time <int>,
#> #   arr_delay <dbl>, carrier <chr>, flight <int>, tailnum <chr>,
#> #   origin <chr>, dest <chr>, air_time <dbl>, distance <dbl>, hour <dbl>,
#> #   minute <dbl>, time_hour <dttm>
```
…
* `n_distinct(x)`: `x` 中唯一的值的个数，一组值去重后的数量。

* `first(x)`， `last(x)` 和 `nth(x, n)`，这些操作和 `x[1]`, `x[length(x)]`, 和 `x[n]` 是类似的，对于值缺失的情况，给你更多的控制，。

比如，我们可以使用这些操作找到飞机的数量以及飞往每个可能目的地的航班数量：


```r
destinations <- group_by(flights, dest)
summarise(destinations,
  planes = n_distinct(tailnum),
  flights = n()
)
#> # A tibble: 105 x 3
#>   dest  planes flights
#>   <chr>  <int>   <int>
#> 1 ABQ      108     254
#> 2 ACK       58     265
#> 3 ALB      172     439
#> 4 ANC        6       8
#> # ... with 101 more rows
```

当按多个变量分组时，每个摘要都会剥离分组的一个级别。 这样可以轻松地逐步汇总数据集：


```r
daily <- group_by(flights, year, month, day)
(per_day   <- summarise(daily, flights = n()))
#> # A tibble: 365 x 4
#> # Groups:   year, month [12]
#>    year month   day flights
#>   <int> <int> <int>   <int>
#> 1  2013     1     1     842
#> 2  2013     1     2     943
#> 3  2013     1     3     914
#> 4  2013     1     4     915
#> # ... with 361 more rows
(per_month <- summarise(per_day, flights = sum(flights)))
#> # A tibble: 12 x 3
#> # Groups:   year [1]
#>    year month flights
#>   <int> <int>   <int>
#> 1  2013     1   27004
#> 2  2013     2   24951
#> 3  2013     3   28834
#> 4  2013     4   28330
#> # ... with 8 more rows
…
但是，在逐步汇总这样的汇总时，必须要小心：求和和计数是可以的，但是您需要考虑对均值和方差进行加权（不能对中位数进行加权）。


### 选择操作 Selecting operations

dplyr 吸引人的功能之一是可以引用小标题中的列，就像它们是常规变量一样。 但是，引用裸列名称的语法统一性掩盖了整个动词的语义差异。提供给 `select()` 的列符号与提供给 `mutate()` 的符号没有相同的含义。

选择操作需要列名和位置。 因此，当您使用裸变量名调用`select()`时，它们实际上表示了自己在小标题中的位置。 从 dplyr 的角度来看，以下调用完全等效：


```r
# `year` 表示整数 1
select(flights, year)
#> # A tibble: 336,776 x 1
#>    year
#>   <int>
#> 1  2013
#> 2  2013
#> 3  2013
#> 4  2013
#> # ... with 336,772 more rows
select(flights, 1)
#> # A tibble: 336,776 x 1
#>    year
#>   <int>
#> 1  2013
#> 2  2013
#> 3  2013
#> 4  2013
#> # ... with 336,772 more rows
```

同样，这意味着如果变量与列之一具有相同的名称，则不能引用周围上下文中的变量。在下面这个例子， `year` 仍然表示 1 而不是 5:

```r
year <- 5
select(flights, year)
```

一个有用的技巧是仅适用于裸名和类似 `c(year, month, day)` 或者 `year:day` 的选择操作。在其它所有情况下，数据框的列都不会放在 scope 里，这使得你可以在 select 操作中使用上下文环境变量


```r
year <- "dep"
select(flights, starts_with(year))
#> # A tibble: 336,776 x 2
#>   dep_time dep_delay
#>      <int>     <dbl>
#> 1      517         2
#> 2      533         4
#> 3      542         2
#> 4      544        -1
#> # ... with 336,772 more rows
```

这些语义通常是直观的，但是注意其中微妙的区别


```r
year <- 5
select(flights, year, identity(year))
#> # A tibble: 336,776 x 2
#>    year sched_dep_time
#>   <int>          <int>
#> 1  2013            515
#> 2  2013            529
#> 3  2013            540
#> 4  2013            545
#> # ... with 336,772 more rows
```

第一个参数， `year` 表示它自己的位置 1。 第二个参数 `year` 根据上下文计算表示第5列。

在很长一段时间里 `select()` 仅能理解列的位置，从 dplyr 版本 0.6 开始，它也能理解列名。这使得用 `select()` 编程比较容易:


```r
vars <- c("year", "month")
select(flights, vars, "day")
#> # A tibble: 336,776 x 3
#>    year month   day
#>   <int> <int> <int>
#> 1  2013     1     1
#> 2  2013     1     1
#> 3  2013     1     1
#> 4  2013     1     1
#> # ... with 336,772 more rows
```

值得注意的是上述代码有些不太安全，因为你可能已经添加了一个叫 `vars` 的列，或者你可能将其应用到另一个包含这样的列的数据框中。为了防止这个问题，你可以使用 `identity()` 包装一下这个变量，调用我们上面提到的，这也会传递列名。然而，但是，一种适用于所有 dplyr 动词的更明确，更通用的方法是用 `!!` 操作符取消对变量的引用。 这告诉 dplyr 绕过数据框并直接在上下文中查找：


```r
# Let's create a new `vars` column:
flights$vars <- flights$year

# The new column won't be an issue if you evaluate `vars` in the
# context with the `!!` operator:
vars <- c("year", "month", "day")
select(flights, !! vars)
#> # A tibble: 336,776 x 3
#>    year month   day
#>   <int> <int> <int>
#> 1  2013     1     1
#> 2  2013     1     1
#> 3  2013     1     1
#> 4  2013     1     1
#> # ... with 336,772 more rows
```
…
Mutate 和 selection 操作是很不一样的。其中 `select()` 使用列名或位置， `mutate()` 使用列向量
*column vectors*. 让我们创建一个更小的 tibble 来说明一下：


```r
df <- select(flights, year:dep_time)
```

当我们使用 `select()`, 裸列名称表示它们自己在 tibble 中的位置。另一方面，`mutate()` 列符号表示存储在 tibble 中的实际列向量。思考一下，如果我们传递一个字符串和数字给 `mutate()` 会发生什么？


```r
mutate(df, "year", 2)
#> # A tibble: 336,776 x 6
#>    year month   day dep_time `"year"`   `2`
#>   <int> <int> <int>    <int> <chr>    <dbl>
#> 1  2013     1     1      517 year         2
#> 2  2013     1     1      533 year         2
#> 3  2013     1     1      542 year         2
#> 4  2013     1     1      544 year         2
#> # ... with 336,772 more rows
```

`mutate()` 得到长度为1的向量，它会解释为数据框中的一个新的列。这些向量会循环去匹配行的长度。这就是为什么提供这样的表达式 `"year" + 10` 给 `mutate()` 没有意义。这等价于将 10 加到一个字符串上！正确的表达式是:


```r
mutate(df, year + 10)
#> # A tibble: 336,776 x 5
#>    year month   day dep_time `year + 10`
#>   <int> <int> <int>    <int>       <dbl>
#> 1  2013     1     1      517        2023
#> 2  2013     1     1      533        2023
#> 3  2013     1     1      542        2023
#> 4  2013     1     1      544        2023
#> # ... with 336,772 more rows
```

同样，你能取消引用内容中的值，如果这些值表示一个有效的列。它们必须要么长度是1（这样它们可以循环补齐）或者与数据框的行数一样。在下面这个例子中，我们创建一个新的向量，添加到数据框，成为数据框中的列。


```r
var <- seq(1, nrow(df))
mutate(df, new = var)
#> # A tibble: 336,776 x 5
#>    year month   day dep_time   new
#>   <int> <int> <int>    <int> <int>
#> 1  2013     1     1      517     1
#> 2  2013     1     1      533     2
#> 3  2013     1     1      542     3
#> 4  2013     1     1      544     4
#> # ... with 336,772 more rows
```

一个典型的例子是 `group_by()`，尽管你会认为它有 select 选择语义，事实上它还有 mutate 变异语义。这很方便，因为它允许按修改后的列分组。


```r
group_by(df, month)
#> # A tibble: 336,776 x 4
#> # Groups:   month [12]
#>    year month   day dep_time
#>   <int> <int> <int>    <int>
#> 1  2013     1     1      517
#> 2  2013     1     1      533
#> 3  2013     1     1      542
#> 4  2013     1     1      544
#> # ... with 336,772 more rows
group_by(df, month = as.factor(month))
#> # A tibble: 336,776 x 4
#> # Groups:   month [12]
#>    year month   day dep_time
#>   <int> <fct> <int>    <int>
#> 1  2013 1         1      517
#> 2  2013 1         1      533
#> 3  2013 1         1      542
#> 4  2013 1         1      544
#> # ... with 336,772 more rows
group_by(df, day_binned = cut(day, 3))
#> # A tibble: 336,776 x 5
#> # Groups:   day_binned [3]
#>    year month   day dep_time day_binned
#>   <int> <int> <int>    <int> <fct>     
#> 1  2013     1     1      517 (0.97,11] 
#> 2  2013     1     1      533 (0.97,11] 
#> 3  2013     1     1      542 (0.97,11] 
#> 4  2013     1     1      544 (0.97,11] 
#> # ... with 336,772 more rows
```

这是你为什么不可以提供一个列名给 `group_by()` 的原因。 这等价于你创建一个新的列，这个新的列包含一个字符串，字符串重复补齐达到数据框的行数。


```r
group_by(df, "month")
#> # A tibble: 336,776 x 5
#> # Groups:   "month" [1]
#>    year month   day dep_time `"month"`
#>   <int> <int> <int>    <int> <chr>    
#> 1  2013     1     1      517 month    
#> 2  2013     1     1      533 month    
#> 3  2013     1     1      542 month    
#> 4  2013     1     1      544 month    
#> # ... with 336,772 more rows
```

既然带选择语义的分组也很有用，我们添加 `group_by_at()` 的变体。在 dplyr 里，变体的后缀 `_at()` 在第二个参数中支持选择语义。仅仅需要使用 `vars()` 包装选择。


```r
group_by_at(df, vars(year:day))
#> # A tibble: 336,776 x 4
#> # Groups:   year, month, day [365]
#>    year month   day dep_time
#>   <int> <int> <int>    <int>
#> 1  2013     1     1      517
#> 2  2013     1     1      533
#> 3  2013     1     1      542
#> 4  2013     1     1      544
#> # ... with 336,772 more rows
```
…
```r
filter(
  summarise(
    select(
      group_by(flights, year, month, day),
      arr_delay, dep_delay
    ),
    arr = mean(arr_delay, na.rm = TRUE),
    dep = mean(dep_delay, na.rm = TRUE)
  ),
  arr > 30 | dep > 30
)
#> Adding missing grouping variables: `year`, `month`, `day`
#> # A tibble: 49 x 5
#> # Groups:   year, month [11]
#>    year month   day   arr   dep
#>   <int> <int> <int> <dbl> <dbl>
#> 1  2013     1    16  34.2  24.6
#> 2  2013     1    31  32.6  28.7
#> 3  2013     2    11  36.3  39.1
#> 4  2013     2    27  31.3  37.8
#> # ... with 45 more rows
```
…
